[gd_scene load_steps=3 format=2]

[ext_resource path="res://sys/background.gd" type="Script" id=1]

[sub_resource type="CanvasItemMaterial" id=1]
blend_mode = 1

[node name="Background" type="Node2D"]
material = SubResource( 1 )
z_index = -5
script = ExtResource( 1 )
